{"name":"login","id":"RestApi.Assignment4:login","testCaseName":"RestApi.Assignment4","testSteps":[{"number":1,"description":"GET https://reqres.in/api/login\r\r","duration":1,"startTime":"2021-05-27T02:42:03.504+05:30[Asia/Calcutta]","result":"SUCCESS","restQuery":{"method":"GET","path":"https://reqres.in/api/login\r\r","content":"\r","contentType":"null","requestHeaders":"Accept\u003d*/*\r\r","requestCookies":"\r\r","responseHeaders":"Date: Wed, 26 May 2021 15:39:19 GMT\nContent-Type: application/json; charset\u003dutf-8\nTransfer-Encoding: chunked\nConnection: keep-alive\nX-Powered-By: Express\nAccess-Control-Allow-Origin: *\nEtag: W/\"2c1-N6Rqerxquq2kgQhL51EiSg4x0R8\"\nVia: 1.1 vegur\nCache-Control: max-age\u003d14400\nCF-Cache-Status: HIT\nAge: 4417\ncf-request-id: 0a4aed9d910000089fba24a000000001\nExpect-CT: max-age\u003d604800, report-uri\u003d\"https://report-uri.cloudflare.com/cdn-cgi/beacon/expect-ct\"\nReport-To: {\"endpoints\":[{\"url\":\"https:\\/\\/a.nel.cloudflare.com\\/report\\/v2?s\u003dtYB0lTfsKE4Sgces%2FLTaOpeCVGBPZneTpxzNDR1YAMl3jG8rqbSilO70WRqMWFjyU7YzUW%2Fndz%2Fp6TB0%2B4veJMO%2BtjrWrUSihhwqe4n7GQo4Pzg%2FlPm1\"}],\"group\":\"cf-nel\",\"max_age\":604800}\nNEL: {\"report_to\":\"cf-nel\",\"max_age\":604800}\nVary: Accept-Encoding\nServer: cloudflare\nCF-RAY: 65581875bc7d089f-CDG\nContent-Encoding: gzip\nalt-svc: h3-27\u003d\":443\"; ma\u003d86400, h3-28\u003d\":443\"; ma\u003d86400, h3-29\u003d\":443\"; ma\u003d86400\r","responseCookies":"\r","responseBody":"{\n    \"page\": 1,\n    \"per_page\": 6,\n    \"total\": 12,\n    \"total_pages\": 2,\n    \"data\": [\n        {\n            \"id\": 1,\n            \"name\": \"cerulean\",\n            \"year\": 2000,\n            \"color\": \"#98B2D1\",\n            \"pantone_value\": \"15-4020\"\n        },\n        {\n            \"id\": 2,\n            \"name\": \"fuchsia rose\",\n            \"year\": 2001,\n            \"color\": \"#C74375\",\n            \"pantone_value\": \"17-2031\"\n        },\n        {\n            \"id\": 3,\n            \"name\": \"true red\",\n            \"year\": 2002,\n            \"color\": \"#BF1932\",\n            \"pantone_value\": \"19-1664\"\n        },\n        {\n            \"id\": 4,\n            \"name\": \"aqua sky\",\n            \"year\": 2003,\n            \"color\": \"#7BC4C4\",\n            \"pantone_value\": \"14-4811\"\n        },\n        {\n            \"id\": 5,\n            \"name\": \"tigerlily\",\n            \"year\": 2004,\n            \"color\": \"#E2583E\",\n            \"pantone_value\": \"17-1456\"\n        },\n        {\n            \"id\": 6,\n            \"name\": \"blue turquoise\",\n            \"year\": 2005,\n            \"color\": \"#53B0AE\",\n            \"pantone_value\": \"15-5217\"\n        }\n    ],\n    \"support\": {\n        \"url\": \"https://reqres.in/#support-heading\",\n        \"text\": \"To keep ReqRes free, contributions towards server costs are appreciated!\"\n    }\n}","statusCode":200},"precondition":false},{"number":2,"description":"POST https://reqres.in/api/login\r\r","duration":1,"startTime":"2021-05-27T02:42:04.745+05:30[Asia/Calcutta]","result":"SUCCESS","restQuery":{"method":"POST","path":"https://reqres.in/api/login\r\r","content":"\r","contentType":"null","requestHeaders":"Accept\u003dapplication/json, application/javascript, text/javascript\r\n\t\t\t\tContent-Type\u003dapplication/x-www-form-urlencoded; charset\u003dISO-8859-1\r\r","requestCookies":"\r\r","responseHeaders":"Date: Wed, 26 May 2021 15:39:20 GMT\nContent-Type: text/html; charset\u003dutf-8\nTransfer-Encoding: chunked\nConnection: keep-alive\nX-Powered-By: Express\nContent-Security-Policy: default-src \u0027none\u0027\nX-Content-Type-Options: nosniff\nVia: 1.1 vegur\nCF-Cache-Status: DYNAMIC\ncf-request-id: 0a4aeda1d6000032be7283d000000001\nExpect-CT: max-age\u003d604800, report-uri\u003d\"https://report-uri.cloudflare.com/cdn-cgi/beacon/expect-ct\"\nReport-To: {\"endpoints\":[{\"url\":\"https:\\/\\/a.nel.cloudflare.com\\/report\\/v2?s\u003d5YmmKAE3XWVGpVHx%2FQ5gVMQeAkD479mLu862Yzz90OtOGt%2F6aisWHvwG9PWIyI%2BnUElxDlUFWqMRpRjsNSAVotfGzJIjzsxsC54FQ8%2BDWOPhAQWV%2Bj7S\"}],\"group\":\"cf-nel\",\"max_age\":604800}\nNEL: {\"report_to\":\"cf-nel\",\"max_age\":604800}\nServer: cloudflare\nCF-RAY: 6558187c881c32be-CDG\nalt-svc: h3-27\u003d\":443\"; ma\u003d86400, h3-28\u003d\":443\"; ma\u003d86400, h3-29\u003d\":443\"; ma\u003d86400\r","responseCookies":"\r","responseBody":"\u003chtml lang\u003d\"en\"\u003e\n  \u003chead\u003e\n    \u003cmeta charset\u003d\"utf-8\"/\u003e\n    \u003ctitle\u003eError\u003c/title\u003e\n  \u003c/head\u003e\n  \u003cbody\u003e\n    \u003cpre\u003eUnsupported Media Type\u003c/pre\u003e\n  \u003c/body\u003e\n\u003c/html\u003e","statusCode":415},"precondition":false}],"userStory":{"id":"RestApi.Assignment4","storyName":"Assignment4","storyClassName":"RestApi.Assignment4","path":"RestApi","type":"story"},"featureTag":{"name":"Assignment4","type":"story"},"title":"verify login","tags":[{"name":"Assignment4","type":"story"}],"startTime":"2021-05-27T02:41:57.963+05:30[Asia/Calcutta]","duration":6952,"testFailureCause":{"errorType":"java.lang.AssertionError","message":"1 expectation failed.\nExpected status code \u003c200\u003e but was \u003c415\u003e.\n","stackTrace":[{"declaringClass":"io.restassured.internal.ResponseSpecificationImpl","methodName":"validateResponseIfRequired","fileName":"ResponseSpecificationImpl.groovy","lineNumber":636},{"declaringClass":"io.restassured.internal.ResponseSpecificationImpl","methodName":"statusCode","fileName":"ResponseSpecificationImpl.groovy","lineNumber":122},{"declaringClass":"io.restassured.internal.ResponseSpecificationImpl","methodName":"statusCode","fileName":"ResponseSpecificationImpl.groovy","lineNumber":130},{"declaringClass":"io.restassured.internal.ValidatableResponseOptionsImpl","methodName":"statusCode","fileName":"ValidatableResponseOptionsImpl.java","lineNumber":117},{"declaringClass":"RestApi.Assignment4","methodName":"login","fileName":"Assignment4.java","lineNumber":40},{"declaringClass":"org.eclipse.jdt.internal.junit4.runner.JUnit4TestReference","methodName":"run","fileName":"JUnit4TestReference.java","lineNumber":89},{"declaringClass":"org.eclipse.jdt.internal.junit.runner.TestExecution","methodName":"run","fileName":"TestExecution.java","lineNumber":41},{"declaringClass":"org.eclipse.jdt.internal.junit.runner.RemoteTestRunner","methodName":"runTests","fileName":"RemoteTestRunner.java","lineNumber":542},{"declaringClass":"org.eclipse.jdt.internal.junit.runner.RemoteTestRunner","methodName":"runTests","fileName":"RemoteTestRunner.java","lineNumber":770},{"declaringClass":"org.eclipse.jdt.internal.junit.runner.RemoteTestRunner","methodName":"run","fileName":"RemoteTestRunner.java","lineNumber":464},{"declaringClass":"org.eclipse.jdt.internal.junit.runner.RemoteTestRunner","methodName":"main","fileName":"RemoteTestRunner.java","lineNumber":210}]},"testFailureClassname":"java.lang.AssertionError","testFailureMessage":"1 expectation failed.\nExpected status code \u003c200\u003e but was \u003c415\u003e.\n","testFailureSummary":"FAILURE;java.lang.AssertionError;1 expectation failed.\nExpected status code \u003c200\u003e but was \u003c415\u003e.\n;ResponseSpecificationImpl.groovy","projectKey":"","annotatedResult":"FAILURE","manual":false,"testSource":"JUnit","result":"FAILURE"}